{
  "dizelge":{
    "tümce":"Kerem, eğitime katılacakları ön kayıt dizelgesine dizdi.",
    "it":"lista"
  },
  "liste":"dizelge",

  "böcek":{
    "tümce":"Bugün bolca böcek ezdim.",
    "en":"bug"
  },

  "ayıklama":{
    "fr":"linting",
    "tümce":"Sorunlu {yiv}leri ayıkladım."
  },

  "yiv": {
    "en": "code",
    "tümce": "Yiv yazarken dinlenecek türküler"
  },

  "kod":"yiv",

  "ön uç": {
    "en":"front end",
    "tümce":"Ön uç geliştirici eğitimine katıldım."
  },
  "frontend":"ön uç",

  "yuva": {
    "fr":"socket",
    "tümce":"{Salık} kaynağını {arka uç}taki yuvaya bağladım\nWebSocket {arabirim}i ile yuva uygulaması yazabilirsin."
  },

  "arka uç": {
    "en":"back end",
    "tümce":"Arka uçta birim {sınama} yazmak daha kolay diyorlarmış."
  },

  "sınama": {
    "en":"test",
    "tümce": "{Yiv}leri için sınama yazmayı sevmezdi."
  },

  "salık": {
    "ar":"ḫaber",
    "tümce":"Ülkemizde salık {yerlik}lerinin sayısı epey fazla."
  },

  "yerlik": {
    "fr":"cité",
    "tümce":"Yerliğini Otağ ile mi yazdın?"
  },
  "site":"yerlik",

  "bulunak": {
    "fr": "adresse",
    "tümce": "Bu IP bulunağı herhangi bir bilgisayara atanmamış."
  },
  "adres": "bulunak",

  "kurma": {
    "en" : "build",
    "tümce": "{Tasarı}daki {bağımlılık}ların fazlalığı {derleyici}nin {kurma} süresini epeyce uzatıyor."
  },
  "bağımlılık":{
    "fr":"dépendance",
    "tümce":"Bağımlılıktan kaçınarak yazmak güzel ancak her şeyi baştan yazmak yorucu olabilir."
  },
  "dependancy":"bağımlılık",
  
  "demet": {
    "en": "bundle",
    "tümce": "{Üretim} {kurma}sı yaparken {tasarı}yı demetlemeyi unutma!"
  },
  "bundle":"demet",

  "üretim": {
    "fr": "production",
    "tümce": "Üretim aşamasında çıkabilecek {böcek}lere karşın {sınama} yazmayı boşlamazdı."
  },

  "tasarı": {
    "fr" :"projet",
    "tümce": "Yazdığı tasarılarda {ölçün}leri her zaman yüksek tutmaya çabalardı."
  },
  "proje":"tasarı",
  "proce":"tasarı",

  "ölçün":{
    "fr": "standard",
    "tümce": "Ölçünlerimizin yüksek olması yüksek {nitelik}li iş yapmamıza olanak tanır."
  },
  "standart":"ölçün",

  "nitelik":[{
    "fr":"qualité",
    "tümce": "Amacımız, ülkemize nitelikli yazılımcılar yetiştirmek."
  },{
    "fr": "attribut",
    "tümce": "HTML ögesine nitelik şu biçimde tanımlanır: <a nitelik='değer'></a>"
  }],
  "kalite": "nitelik:0",
  "attribute": "nitelik:1"
}